^C:\USERS\JOHN&MARK\SOURCE\REPOS\BASPRG2_FINALS\BASPRG2_FINALS\POKEMON.CPP|C:\USERS\JOHN&MARK\SOURCE\REPOS\BASPRG2_FINALS\BASPRG2_FINALS\SOURCE.CPP
C:\USERS\JOHN&MARK\SOURCE\REPOS\BASPRG2_FINALS\BASPRG2_FINALS\DEBUG\VC141.PDB
C:\USERS\JOHN&MARK\SOURCE\REPOS\BASPRG2_FINALS\BASPRG2_FINALS\DEBUG\VC141.IDB
C:\USERS\JOHN&MARK\SOURCE\REPOS\BASPRG2_FINALS\BASPRG2_FINALS\DEBUG\SOURCE.OBJ
C:\USERS\JOHN&MARK\SOURCE\REPOS\BASPRG2_FINALS\BASPRG2_FINALS\DEBUG\POKEMON.OBJ
^C:\USERS\JOHN&MARK\SOURCE\REPOS\BASPRG2_FINALS\BASPRG2_FINALS\POKEMON.CPP
C:\USERS\JOHN&MARK\SOURCE\REPOS\BASPRG2_FINALS\BASPRG2_FINALS\DEBUG\VC141.PDB
^C:\USERS\JOHN&MARK\SOURCE\REPOS\BASPRG2_FINALS\BASPRG2_FINALS\SOURCE.CPP
C:\USERS\JOHN&MARK\SOURCE\REPOS\BASPRG2_FINALS\BASPRG2_FINALS\DEBUG\VC141.PDB
C:\USERS\JOHN&MARK\SOURCE\REPOS\BASPRG2_FINALS\BASPRG2_FINALS\DEBUG\VC141.IDB
C:\USERS\JOHN&MARK\SOURCE\REPOS\BASPRG2_FINALS\BASPRG2_FINALS\DEBUG\SOURCE.OBJ
